…
This is my table that shows the mean and standard deviation for the proportion of "Excellent" responses across counties in New York. NA standard deviations mean that there was only 1 observation for that county.

``` r
brfss_data 
```

    ## # A tibble: 10,625 x 12
    ##     year locationabbr locationdesc response sample_size data_value
    ##    <int> <chr>        <chr>        <fct>          <int>      <dbl>
    ##  1  2010 AL           AL - Jeffer… Excelle…          94       18.9
    ##  2  2010 AL           AL - Jeffer… Very go…         148       30  
    ##  3  2010 AL           AL - Jeffer… Good             208       33.1
    ##  4  2010 AL           AL - Jeffer… Fair             107       12.5
    ##  5  2010 AL           AL - Jeffer… Poor              45        5.5
    ##  6  2010 AL           AL - Mobile… Excelle…          91       15.6
    ##  7  2010 AL           AL - Mobile… Very go…         177       31.3
    ##  8  2010 AL           AL - Mobile… Good             224       31.2
    ##  9  2010 AL           AL - Mobile… Fair             120       15.5
    ## 10  2010 AL           AL - Mobile… Poor              66        6.4
    ## # ... with 10,615 more rows, and 6 more variables:
    ## #   confidence_limit_low <dbl>, confidence_limit_high <dbl>,
    ## #   display_order <int>, data_value_unit <chr>, data_value_type <chr>,
    ## #   geo_location <chr>
